C:\Users\Adam\workspace\mbapi\src\main\java\mbapi\utils\XUserAgentInterceptor.java
C:\Users\Adam\workspace\mbapi\src\main\java\mbapi\bean\Artist.java
C:\Users\Adam\workspace\mbapi\src\main\java\mbapi\cache\dao\ArtistCacheDao.java
C:\Users\Adam\workspace\mbapi\src\main\java\mbapi\bean\Tags.java
C:\Users\Adam\workspace\mbapi\src\main\java\mbapi\cache\repositoy\BlazeGraphRepository.java
C:\Users\Adam\workspace\mbapi\src\main\java\mbapi\application\ErrorJson.java
C:\Users\Adam\workspace\mbapi\src\main\java\mbapi\source\dao\IArtistDao.java
C:\Users\Adam\workspace\mbapi\src\main\java\mbapi\source\dao\impl\ArtistDao.java
C:\Users\Adam\workspace\mbapi\src\main\java\mbapi\application\Application.java
C:\Users\Adam\workspace\mbapi\src\main\java\mbapi\bean\MBJsonResult.java
C:\Users\Adam\workspace\mbapi\src\main\java\mbapi\cache\GraphMapper.java
C:\Users\Adam\workspace\mbapi\src\main\java\mbapi\utils\RepositoryConnectionCallback.java
C:\Users\Adam\workspace\mbapi\src\main\java\mbapi\cache\CacheDaoRegistry.java
C:\Users\Adam\workspace\mbapi\src\main\java\mbapi\cache\dao\AbstractCacheDao.java
